[
    {
      "name": "Starbucks",
      "properties": {
        "coordinates": [ 55, 63 ],
        "price": 3,
        "openingHours": [ 0, 23 ],
        "style": [ "dinner" ]
      }
    },
    {
      "name": "The Backer",
      "properties": {
        "coordinates": [ 68, 86 ],
        "price": 3,
        "openingHours": [ 0, 23 ],
        "style": [ "snack" ]
      }
      
    },
    {
      "name": "Reckers",
      "properties": {
        "coordinates": [ 22, 51 ],
        "price": 2,
        "openingHours": [ 0, 23 ],
        "style": [ "snack" ]
      }
    },
    {
      "name": "Smashburger",
      "properties": {
        "coordinates": [ 4, 54 ],
        "price": 1,
        "openingHours": [ 0, 23 ],
        "style": [ "snack" ]
      }
    },
    {
      "name": "Taco Bell",
      "properties": {
        "coordinates": [ 7, 6 ],
        "price": 3,
        "openingHours": [ 0, 23 ],
        "style": [ "snack" ]
      }
    }
  ]
  